{
    "version": "0.0.1",
    "summary": "The frontend for www.thehappinesstrapsidekick.com",
    "repository": "https://github.com/user/project.git",
    "license": "GNU",
    "source-directories": [
        "src"
    ],
    "exposed-modules": [],
    "dependencies": {
        "NoRedInk/elm-decode-pipeline": "2.0.0 <= v < 3.0.0",
        "elm-community/list-extra": "3.1.0 <= v < 4.0.0",
        "elm-lang/core": "4.0.5 <= v < 5.0.0",
        "elm-lang/html": "1.1.0 <= v < 2.0.0",
        "elm-lang/svg": "1.1.1 <= v < 2.0.0",
        "evancz/elm-http": "3.0.1 <= v < 4.0.0"
    },
    "elm-version": "0.17.0 <= v < 0.18.0"
}
